Chapter 7 Conclusion | Covid & Expense
…
## # A tibble: 6 × 17
##   submission_date state tot_cases conf_cases prob_cases new_case pnew_case tot_death
##   <chr>           <chr>     <dbl>      <dbl>      <dbl>    <dbl>     <dbl>     <dbl>
## 1 04/01/2021      CA      3570660    3570660          0     2234         0     58090
## 2 05/31/2021      CA      3685032    3685032          0      644         0     62011
## 3 02/06/2020      NE            0         NA         NA        0        NA         0
## 4 07/30/2020      ME         3910       3497        413       22         2       123
## 5 02/02/2021      MS       280182     176228     103954     1059       559      6730
## 6 05/03/2020      NH         2518         NA         NA       89         0        86
## # … with 9 more variables: conf_death <dbl>, prob_death <dbl>, new_death <dbl>,
## #   pnew_death <dbl>, created_at <chr>, consent_cases <chr>, consent_deaths <chr>,
## #   date <date>, month <yearmon>

## # A tibble: 1,380 × 4
##    new_case new_death date      state
##       <dbl>     <dbl> <yearmon> <chr>
##  1      227         3 Apr 2020  AK   
##  2     4871         1 Apr 2021  AK   
##  3     2297        19 Aug 2020  AK   
##  4    12078        49 Aug 2021  AK   
##  5    13978        76 Dec 2020  AK   
##  6        0         0 Feb 2020  AK   
##  7     3569        15 Feb 2021  AK   
##  8        0         0 Jan 2020  AK   
##  9     6991        27 Jan 2021  AK   
## 10     2049        16 Jul 2020  AK   
## # … with 1,370 more rows
…
## [1] 49

##  [1] "CA"  "NE"  "ME"  "MS"  "NH"  "NV"  "IN"  "AL"  "NC"  "MI"  "CT"  "WI"  "ND"  "MO" 
## [15] "DE"  "IL"  "ID"  "VI"  "MD"  "VT"  "WA"  "GU"  "MT"  "RI"  "LA"  "DC"  "AZ"  "MN" 
## [29] "FSM" "OR"  "NJ"  "KY"  "VA"  "SC"  "WY"  "KS"  "TX"  "AR"  "PW"  "MP"  "MA"  "PR" 
## [43] "GA"  "NYC" "AS"  "AK"  "HI"  "CO"  "WV"  "UT"  "OK"  "FL"  "TN"  "RMI" "NY"  "SD" 
## [57] "NM"  "PA"  "IA"  "OH"

## # A tibble: 49 × 4
##    state long.mid lat.mid group
##    <chr>    <dbl>   <dbl> <dbl>
##  1 AL       -86.7    32.6     1
##  2 AR       -92.1    34.8     3
##  3 AZ      -112.     34.2     2
##  4 CA      -119.     37.3     4
##  5 CO      -106.     39.0     5
##  6 CT       -72.8    41.5     6
##  7 DE       -75.4    39.2     7
##  8 FL       -83.8    28.1     9
##  9 GA       -83.2    32.7    10
## 10 IA       -93.4    41.9    14
## # … with 39 more rows
…
